<?xml version="1.0" encoding="utf-8"?>
<!-- Generator: Adobe Illustrator 23.1.1, SVG Export Plug-In . SVG Version: 6.00 Build 0)  -->
<svg version="1.1" id="Layer_1" xmlns="http://www.w3.org/2000/svg" xmlns:xlink="http://www.w3.org/1999/xlink" x="0px" y="0px"
	 viewBox="0 0 1000 1000" style="enable-background:new 0 0 1000 1000;" xml:space="preserve">
<style type="text/css">
	.st0{fill:#EBB627;}
</style>
<g>
	<path class="st0" d="M0,0v1000h1000V0H0z M197.2,542.3c-6.1,20.7-44.3,120-34.7,318.1c0.3,6.5-6.6,10.7-12.2,7.4
		c-6.4-3.8-13-7.8-14.6-9c0-5.4-0.1-10,0-14.6c0.2-10.6,4.8-68.4,5.1-75.6c3.9-97.4,23.8-172.5,34.2-209.9
		c10.7-36.8,23.5-77.9,34.2-114.6C212,458.7,200.3,532.1,197.2,542.3z M626.8,503.9c-21.8,0-43.2,0.9-64.4-0.5
		c-7.7-0.5-12.7-7-22.6-10.1c-20.6-6.3-33.5-15.6-51.5-26c-2.9-1.7-6.6-6.1-8.1-10.2c0.6-0.9,0.2-5.1,0.8-6l38,22.4
		c10.5,3.1,14,5.1,24.6,6.9c10.3,1.7,19.5,2.9,27.5-1.7c5-2.9,5.2-8.9,7.3-14c4.1-9.8,19.8-44.1,24.3-49.7
		c5.7-7.2,21.8-31.7,44.5-35.8c5.7-0.4,29-3.7,68.4,10.3c0,0-0.9-4.9-1.7-8.4c3.3,1.8,32.6,16.2,40.4,25c4.1,4.7,2.5,13.9,0.5,12.6
		c-3.9-4.2-6.4-8.3-10-10.4c-3.5-2-8.6-3.2-12.1-2c-2.3,0.7-4.9,6.7-4.1,9.6c2.1,8.6,5.8,16.8,9,25.1c0.8,2.1,8,18.5,8.8,26.2
		c0.6,6.2,4.5,14,10.2,17.3c3.8,2.2,12.3,0.2,17-0.3v0c3.6,1.5,8.8,5.9,1.1,13.5c-9.1-0.7-19.5-1.8-29.9-2c-3.3-0.1-21.9,6.4-24,6.6
		c-24.4,2-30.6,2.3-47.2,2C664.4,504.1,631.1,503.5,626.8,503.9z M905.2,663.6c-1.6,0.3-55.4,11.5-67.6,12.1
		c-14.2,0.7-28.1,4.7-42.3,6.1v0c-23.4,2.4-39.1,15-43.5,20.6c-8,10.3-12.1,20-9.1,32.9c3.5,15.2,2.2,99.5,81.4,156.1
		c-6.8,8.3-13.2,5.1-19.1-0.3c-8.5-7.7-17.5-15.1-24.7-23.8c-4.5-5.5-23.4-31.5-28.3-38.6c-5.7-8.3-21-49.9-24.6-61.2
		c-2.8-8.8-4.2-18.2-5.9-27.4c-2.2-11.4-6.7-27.6-9.8-39.8c-1.3-5-6.9-39-0.4-51.8c0.2-0.3,11.4,14.7,16.6,20.5
		c28.7,4.2,68.8,3,89.3,0.8c-0.1-0.8,97.3-12.6,103.9-26.3c-10.8-1.3-103-19.2-120-23.5c-10.7-2.7-32.2-3.7-122.7-49
		c-5.5-2.8-3.5-14.2,5.5-21.2c6.9,26.5,97.6,58,115.6,63c19.8,5.5,68.8,21,146,20c1.8,0,3.4-4.8,2.8-6.3c-3.7-8.5-46.5-50-61.6-64.9
		c-4.2-4.1-35.9-41.5-72.4-51c1.9-9.4,17.6-14.2,16.6-16.6c-12.9-31.3-3-28.7,8.7-34.6c1.6-0.8,1-11.8,1.1-14.3
		c4.9-111.1-54.2-161.1-65.5-168.9c-22.3-15.4-45.4-29.8-68.5-44c-15.5-9.5-31.5-18-47.5-26.7c-13.2-7.2-26.4-14.5-39.9-21
		c-14.6-7.1-29.6-13.5-44.5-19.8c-23.7-10.1-89.4-31.4-92.9-31.4c0.9,4.1,2.8,10.2,3.3,12.7c-17.2-3.3-34-7.1-50.8-10.8
		c-9.6-2.1-8.5-6.1-18.1-8.1c-2.7-0.6-16.4,6-19.4,5.8c-15.3-1.2-74-5.7-88.4-5.2c-20.6,0.8-41.3,0.2-62,0.5c-8.3,0.1-16.7,1-25,1.5
		c-0.1,1.1,8.7,5.3,13.1,12.2c-23.5-0.5-35.9-9.3-55.1-6.6c3.8,4.2,23.3,22.6,5.1,17.2c-8.2-2.4-33.7-3.9-33.6-2.7
		c30.6,14.8-15.2,8.8-28.2,9.4c-9.3,0.4-40.5-1-68.4,3.4c-0.4,1.1,25.6,13.1,38.1,19.7c12.6,6.6,24.4,14.7,37.1,22.4
		c-4.5,7.3-16.9,11-29.6,12.4c12.6,7.8,31.4,7.7,45.9,7.2c0.6,4.6-3.4,8.2-8.2,10.2c18.3,7.3,36.8,19.3,40.3,27.2
		c34.8,36.3,84.8,130.4,32.3,176.8c2.8-15.6,4.7-33.6,7.5-49.5c-0.8-0.9-3.6-2.7-4.2-5.1c-2.3-9-4.9-18-5.4-27.2
		c-0.9-14.5-7.6-26.4-15.5-37.6c-2.6-3.6-8.4-5-13.5-7.8l7.8-6.2c-16.1-2.9-40.3-40.1-64.9-56c-8.6-5.5-61.4-33.7-63.3-48.4
		c11.9,1.7,30.1,9.7,46.2,4.9c-5.5-7.6-46.9-27.4-46.6-28l-33.8-15.3c1.1-1.8,1.8-4.9,3.2-5.2c9.8-2.6,19.7-5.3,29.7-6.7
		c30.6-4.2,61.2-7.9,91.8-11.8c-1.6-5.2-7.7-12-9.3-17.5c7.2-6.6,67.6-5.8,87.6-6.6c24.6-1,49.3-0.1,74-0.1c0.7,0,56.3,4.2,83.3,0.6
		c7.6-1-3.8-9-3.8-9.5c8.5-1,13.1-5.2,24.8-1.9c7.4,2.1,40.6,14.3,45.7,15.4c-0.4-3.5-20.8-18.9-2.9-16.8
		c11.9,3.7,147.2,59.6,178.8,72.7c21.6,9,166.2,66.5,204.8,146.7c0,0-4.7-57.9,13.8-5.1c6.9,19.8,2.2,44.4,4.8,49
		c0,0,9.4-35.7,13.4-14.7c2.9,15.3-6.9,45-8.9,53.1c-0.1,0.4,15.8-21.3,13.9-6.6c-3,23.2-10.7,47.4-11.4,47.4
		c0.3,7.1,1,14.3,0.9,21.4c-0.1,6.1-3.7,18.4-4.8,18.4c1.9,1,24.6,47.1,38.9,65.8c18.5,24.4,78.7,95.5,81,102.2
		C974.6,654.4,927.3,660,905.2,663.6z"/>
	<path class="st0" d="M720.7,495.1L720.7,495.1c15.1-9.1,5.6-9.9,3.4-10.1c-2.7-0.2-5.4-0.8-6.1-0.9c1.2-5.9,2.9-7.6,2.6-14
		c-2.9-58.7-29.5-70.9-42.3-77.7c-7.5-4-16.5-5-25.9-7.6c-29.6,11.5-44.8,51.2-47.9,56.3c-1.6,2.6-12.4,21.8-15.2,30.1
		c-2.2,6.7,3.7,14.2,10.5,16.2c8,2.4,44.7,8.5,55.1,9.9C673.9,499.8,714.1,499.1,720.7,495.1z"/>
</g>
</svg>
